^C:\USERS\ANDREA.GIULIANO\SOURCE\REPOS\C++\HELLOWORLD\HELLOWORLD\SOURCE.CPP
C:\USERS\ANDREA.GIULIANO\SOURCE\REPOS\C++\HELLOWORLD\HELLOWORLD\DEBUG\VC141.PDB
C:\USERS\ANDREA.GIULIANO\SOURCE\REPOS\C++\HELLOWORLD\HELLOWORLD\DEBUG\VC141.IDB
C:\USERS\ANDREA.GIULIANO\SOURCE\REPOS\C++\HELLOWORLD\HELLOWORLD\DEBUG\SOURCE.OBJ
